﻿{
    "_globals": {
        "_components": {
            "_accordion": {
                "ariaRegion": "Ce composant est un accordéon : il comprend des volets de texte que vous pouvez réduire. Sélectionnez les titres pour modifier la visibilité de ces volets.",
                "instruction": ""
            },
            "_gmcq": {
                "ariaRegion": "Ce composant est une question graphique à choix multiples. Une fois que vous avez sélectionné une option, cliquez sur le bouton Valider en dessous.",
                "instruction": ""
            },
            "_hotgraphic": {
                "ariaRegion": "Le composant ci-dessous vous permet de sélectionner une zone réactive plutôt qu’une image. Sélectionnez une zone réactive pour ouvrir une fenêtre contextuelle qui comprend une image avec du texte. Cliquez sur Fermer pour fermer la fenêtre contextuelle.",
                "ariaPoupupLabel": "Fenêtre contextuelle du graphique"
            },
            "_matching": {
                "ariaRegion": "Avec ce composant de question, vous devez sélectionner la réponse correspondante dans une liste déroulante en dessous. Lorsque vous avez sélectionné vos réponses, cliquez sur le bouton Valider.",
                "instruction": ""
            },
            "_mcq": {
                "ariaRegion": "Ce composant est une question à choix multiples. Une fois que vous avez sélectionné une option, cliquez sur le bouton Valider en dessous.",
                "instruction": ""
            },
            "_media": {
                "ariaRegion": "Il s’agit d’un composant de contenu multimédia qui lit une vidéo. Cliquez sur le bouton Lecture/Pause pour regarder ou écouter le contenu. Vous pouvez également sélectionner le lien ci-dessous pour accéder à la transcription.",
                "transcriptButton": "Vous pouvez également sélectionner le lien ci-dessous pour accéder à la transcription.",
                "instruction": ""
            },
            "_narrative": {
                "ariaRegion": "Ce composant affiche une galerie d’images avec un texte d’accompagnement. Utilisez les commandes de navigation Suivant et Précédent pour lire le récit.",
                "instruction": ""
            },
            "_phaser": {
                "ariaRegion": ""
            },
            "_slider": {
                "ariaRegion": "Avec ce composant, vous devez répondre à la question en sélectionnant la bonne valeur. Après avoir sélectionné une valeur, cliquez sur le bouton Valider en dessous.",
                "instruction": ""
            },
            "_textinput": {
                "ariaRegion": "Avec ce composant de question, vous devez saisir votre réponse dans la zone de texte prévue à cet effet. Lorsque vous avez répondu à la question, cliquez sur le bouton Valider en dessous."
            },
            "_mcq-truefalse": {
                "ariaRegion": "Ce composant est une question à choix multiples. Une fois que vous avez sélectionné une option, cliquez sur le bouton Valider en dessous."
            },
            "_blank": {
                "ariaRegion": "",
                "instruction": ""
            },
            "_graphic": {
                "ariaRegion": "",
                "instruction": ""
            },
            "_hotGraphic": {
                "ariaRegion": "Le composant ci-dessous vous permet de sélectionner une zone réactive plutôt qu’une image. Sélectionnez une zone réactive pour ouvrir une fenêtre contextuelle qui comprend une image avec du texte. Cliquez sur Fermer pour fermer la fenêtre contextuelle.",
                "instruction": ""
            },
            "_text": {
                "ariaRegion": "",
                "instruction": ""
            },
            "_textInput": {
                "ariaRegion": "Avec ce composant de question, vous devez saisir votre réponse dans la zone de texte prévue à cet effet. Lorsque vous avez répondu à la question, cliquez sur le bouton Valider en dessous.",
                "instruction": ""
            }
        },
        "_extensions": {
            "_pageLevelProgress": {
                "pageLevelProgress": "Sections de page",
                "pageLevelProgressIndicatorBar": "Barre de progression. Cliquez ici pour afficher votre progression actuelle et sélectionnez un élément pour y accéder. Vous avez terminé ",
                "pageLevelProgressEnd": "Vous avez atteint la fin de la liste des sections de page.",
                "optionalContent": "Contenu facultatif"
            }
        },
        "_menu": {
            "_boxmenu": {
                "ariaRegion": "Menu",
                "menuItem": "Élément de menu.",
                "menuEnd": "Vous avez atteint la fin du menu."
            }
        },
        "_accessibility": {
            "_accessibilityToggleTextOn": "Activer l’accessibilité ?",
            "_accessibilityToggleTextOff": "Désactiver l’accessibilité ?",
            "_accessibilityInstructions": {
                "touch": "Instructions d’utilisation. Balayez vers la gauche pour accéder à l’élément suivant. Balayez vers la droite pour accéder à l’élément précédent. Appuyez deux fois sur Tabulation pour effectuer une sélection. Faites glisser vers le haut avec deux doigts pour atteindre le haut de la page.",
                "notouch": "Instructions d’utilisation. Appuyez sur Tabulation pour accéder à l’élément suivant. Appuyez sur Majuscule et Tabulation pour accéder à l’élément précédent. Appuyez sur Entrée pour effectuer une sélection. Appuyez sur Échap pour atteindre le haut de la page.",
                "ipad": "Instructions d’utilisation pour les écrans tactiles. Balayez vers la gauche pour accéder à l’élément suivant. Balayez vers la droite pour accéder à l’élément précédent. Appuyez deux fois sur Tabulation pour effectuer une sélection. Faites glisser vers le haut avec deux doigts pour atteindre le haut de la page. Instructions d’utilisation pour accéder au clavier. Appuyez sur la flèche de gauche pour accéder à l’élément suivant. Appuyez sur la flèche de droite pour accéder à l’élément précédent. Appuyez simultanément sur les flèches vers le haut et vers le bas pour effectuer une sélection."
            },
            "_ariaLabels": {
                "navigation": "Barre de navigation du cours",
                "menuLoaded": "Menu chargé.",
                "menu": "Menu",
                "page": "Page",
                "pageLoaded": "Page chargée.",
                "pageEnd": "Vous avez atteint la fin de la page.",
                "previous": "Retour",
                "navigationBack": "Retourner en arrière",
                "navigationDrawer": "Ouvrir les ressources du cours.",
                "close": "Fermer",
                "closeDrawer": "Fermer le panneau",
                "closeResources": "Fermer les ressources",
                "resourcesEnd": "Vous avez atteint la fin de la liste des ressources.",
                "drawerBack": "Retour au panneau",
                "drawer": "Haut du panneau latéral",
                "closePopup": "Fermer la fenêtre contextuelle",
                "next": "Suivant",
                "done": "Terminé",
                "complete": "Terminé",
                "incomplete": "Incomplet",
                "incorrect": "Faux",
                "correct": "Correct",
                "locked": "Verrouillé",
                "accessibilityToggleButton": "Ce bouton vous permet d’activer ou de désactiver l’accessibilité",
                "feedbackPopUp": "Fenêtre contextuelle ouverte.",
                "menuBack": "Retour au menu",
                "visited": "Consulté"
            }
        }
    },
    "_id": "course",
    "_type": "course",
    "title": "Attribution multitouch",
    "displayTitle": "Comprendre l’attribution multitouch",
    "body": "",
    "_buttons": {
        "_submit": {
            "bugrttonText": "Submit",
            "ariaLabel": "Cliquez ici pour valider votre réponse."
        },
        "_reset": {
            "buttonText": "Réinitialiser",
            "ariaLabel": "Cliquez ici pour réinitialiser la question."
        },
        "_showCorrectAnswer": {
            "buttonText": "Bonne réponse",
            "ariaLabel": "Cliquez ici pour afficher la bonne réponse."
        },
        "_hideCorrectAnswer": {
            "buttonText": "Ma réponse",
            "ariaLabel": "Cliquez ici pour voir votre réponse."
        },
        "_showFeedback": {
            "buttonText": "Voir l’explication",
            "ariaLabel": "Cliquez ici pour consulter à nouveau l’explication de la question."
        },
        "remainingAttemptsText": "tentatives restantes",
        "remainingAttemptText": "dernière tentative",
        "disabledAriaLabel": "Ce bouton est désactivé pour le moment."
    },
    "_pageLevelProgress": {
        "_isEnabled": true,
        "_altText": "de composants terminés sur cette page."
    },
    "_bookmarking": {
        "_isEnabled": true,
        "_level": "component",
        "title": "Marque-page",
        "body": "Souhaitez-vous reprendre où vous vous étiez arrêté(e) ?",
        "_buttons": {
            "yes": "Oui",
            "no": "Non"
        }
    },
    "_analytics": {
        "_isEnabled": true
    },
    "_latestTrackingId": 47
}